^C:\USERS\ADMIN\SOURCE\REPOS\HW_POZDEEV_LESS11\HW_POZDEEV_LESS11\DEBUG\HW_POZDEEV_LESS11.OBJ
C:\USERS\ADMIN\SOURCE\REPOS\HW_POZDEEV_LESS11\DEBUG\HW_POZDEEV_LESS11.EXE
C:\USERS\ADMIN\SOURCE\REPOS\HW_POZDEEV_LESS11\DEBUG\HW_POZDEEV_LESS11.ILK
C:\USERS\ADMIN\SOURCE\REPOS\HW_POZDEEV_LESS11\DEBUG\HW_POZDEEV_LESS11.PDB
